"","","","","","","","Outright Discount","","","Device Payment Discount","","","Device Payment Contract",""
"Make","Model","Capacity","Network","","RRP
Inc GST","Non Recurring","Recurring 
12 Month","12 Month","24 Month","36 Month","12 Month","24 Month","36 Month","Product Code"
"Samsung","Galaxy S10","256GB","5G","Yes","$2,016","$0","$0","$0","$0","$0","$168.00","$84.00","$56.00","PHS0000290"
"Samsung","Galaxy S20 FE","128GB","5G","Yes","$999","$0","$0","$0","$0","$0","$83.25","$41.62","$27.75","PHS0000360"
"Samsung","Galaxy S21 5G","128GB","5G","5G","$1,248","$0","$0","$0","$0","$0","$104.00","$52.00","$34.66","PHS0000361"
"Samsung","Galaxy S21 5G","256GB","5G","5G","$1,344","$0","$0","$0","$0","$0","$112.00","$56.00","$37.33","PHS0000362"
"Samsung","Galaxy S21+ 5G","128GB","5G","5G","$1,536","$0","$0","$0","$0","$0","$128.00","$64.00","$42.66","PHS0000363"
"Samsung","Galaxy S21+ 5G","256GB","5G","5G","$1,632","$0","$0","$0","$0","$0","$136.00","$68.00","$45.33","PHS0000364"
"Samsung","Galaxy S21 Ultra 5G","128GB","5G","5G","$1,848","$0","$0","$0","$0","$0","$154.00","$77.00","$51.33","PHS0000365"
"Samsung","Galaxy S21 Ultra 5G","256GB","5G","5G","$1,944","$0","$0","$0","$0","$0","$162.00","$81.00","$54.00","PHS0000366"
"Samsung","Galaxy XCover Pro","64GB","4GX","Yes","$799","$0","$0","$0","$0","$0","$66.58","$33.29","$22.19","PHS0000332"
"Samsung","Galaxy Z Flip","256GB","4GX","No","$1,499","$0","$0","$0","$0","$0","$124.91","$62.45","$41.63","PHS0000321"
"Samsung","Galaxy Z Fold2 5G","256GB","5G","No","$2,499","$0","$0","$0","$0","$0","$208.25","$104.12","$69.41","PHS0000359"
"Telstra","Tough 4 (T55A)","-","4GX","Yes","$144","$0","$0","$0","$0","$0","$12.00","$6.00","$4.00","PHS0000093"
"Telstra","Tough Max 2 (T85)","-","4GX","Yes","$432","$0","$0","$0","$0","$0","$36.00","$18.00","$12.00","PHS0000208"
"Telstra","Tough Max 3 (T86)","64GB","4GX","Yes","$499","$0","$0","$0","$0","$0","$41.58","$20.79","$13.86","PHS0000322"
